<svg xmlns="http://www.w3.org/2000/svg" width="13.548" height="13.548" viewBox="0 0 13.548 13.548">
  <path id="Cancel_White" d="M5.774,5.774,0,11.548,5.774,5.774,0,0,5.774,5.774,11.548,0,5.774,5.774l5.774,5.774Z" transform="translate(1 1)" fill="none" stroke="#fff" stroke-linejoin="round" stroke-width="2"/>
</svg>
