<svg xmlns="http://www.w3.org/2000/svg" width="16" height="8" viewBox="0 0 16 8">
  <path id="Dropdown_White" d="M7.293.707a1,1,0,0,1,1.414,0l5.586,5.586A1,1,0,0,1,13.586,8H2.414a1,1,0,0,1-.707-1.707Z" transform="translate(16 8) rotate(180)" fill="#003366"/>
</svg>
