<svg xmlns="http://www.w3.org/2000/svg" width="14.902" height="14.902" viewBox="0 0 14.902 14.902">
  <path id="Edit_White" d="M11.6,0a2.147,2.147,0,0,1,1.718,3.436l-.859.859L9.448,1.288l.859-.859A2.137,2.137,0,0,1,11.6,0ZM.859,9.878,0,13.743l3.865-.859L11.81,4.939,8.8,1.933Zm8.745-5L3.591,10.892l-.74-.74L8.863,4.139Z" transform="translate(0.659 0.5)" fill="#fff" stroke="#fff" stroke-width="1"/>
</svg>
