<svg xmlns="http://www.w3.org/2000/svg" width="35" height="35" viewBox="0 0 35 35">
  <path id="User_Black" d="M5.125,29.875A17.5,17.5,0,0,1,29.875,5.125,17.5,17.5,0,0,1,5.125,29.875ZM1.276,17.5A16.179,16.179,0,0,0,6.139,29.071a21.01,21.01,0,0,1,9.668-3.011V24.2a10.081,10.081,0,0,1-4.517-8.39c0-5.613,0-10.161,6.775-10.161s6.775,4.548,6.775,10.161a10.082,10.082,0,0,1-4.517,8.39V26.06a21.738,21.738,0,0,1,8.964,2.579A16.221,16.221,0,1,0,1.276,17.5Z"/>
</svg>
